{
    "shortenUrlContextItemTitle": {
      "message": "Accorciare l'URL",
      "description": "Title for context menu to shorten URL"
    },
    "shortenCurrentUrlContextItemTitle": {
      "message": "Accorcia l'URL corrente",
      "description": "Title for context menu to shorten URL"
    },
    "popupLoginButtonTitle": {
      "message": "Accesso",
      "description": "Title for login button in login popup"
    },
    "shortenNotificationTitle": {
      "message": "Short link copiato negli appunti",
      "description": "Title for notification after shortening link"
    },
    "shortenNotificationDescription": {
      "message": "Ora puoi usarlo come meglio credi! :)",
      "description": "Description for notification after shortening link"
    },
    "poweredByFooterText":{
      "message": "Possibile grazie a",
      "description": "Text displayed before bit.ly in footer"
    },
    "userPreTitle":{
      "message": "Utente:",
      "description": "displayed on popup, username follows"
    },
    "logoutButtonTitle":{
      "message": "Disconnettersi",
      "description": "displayed on logout button in popup"
    },
    "recentlyShortenedTitle":{
      "message": "Accorciato di recente",
      "description": "displayed above recent links in popup"
    },
    "recentlyShortenedEmpty":{
      "message": "Nessun collegamento recente",
      "description": "displayed ion recent links area when no links are found"
    },
    "disableAutoShortenContextItemTitle":{
      "message": "Disattiva abbreviazione automatica URL",
      "description": ""
    },
    "shortenImageUrlContextItemTitle":{
      "message": "Accorcia l'URL dell'immagine",
      "description": "displayed in context menu when right clicked on image"
    },
    "settingsTitle":{
      "message": "Impostazioni",
      "description": "displayed ion recent links area when no links are found"
    },
    "settingsShowNotificationTitle":{
      "message": "Mostra notifiche",
      "description": "displayed ion recent links area when no links are found"
    },
    "settingsShowNotificationDesc":{
      "message": "Controlla la visualizzazione delle notifiche dopo che è stato generato un collegamento breve",
      "description": "displayed ion recent links area when no links are found"
    },
    "settingsShowCurrentUrlShortenTitle":{
      "message": "Riduci l'URL corrente nel menu di scelta rapida",
      "description": "displayed ion recent links area when no links are found"
    },
    "settingsShowCurrentUrlShortenDesc":{
      "message": "Controlla la visualizzazione dell'opzione del tasto destro per abbreviare l'URL corrente",
      "description": "displayed ion recent links area when no links are found"
    },
    "settingsAutoUrlShortenTitle":{
      "message": "Accorciamento automatico dell'URL corrente",
      "description": "displayed ion recent links area when no links are found"
    },
    "settingsAutoUrlShortenDesc":{
      "message": "Un link breve verrà generato per l'URL corrente di una scheda attiva facendo clic sull'icona dell'estensione NOTA: è necessario fare clic con il tasto destro sull'icona dell'estensione per disabilitare questa opzione",
      "description": "displayed ion recent links area when no links are found"
    }
  }