{
    "shortenUrlContextItemTitle": {
      "message": "URL verkürzen",
      "description": "Title for context menu to shorten URL"
    },
    "shortenCurrentUrlContextItemTitle": {
      "message": "Aktuelle URL verkürzen",
      "description": "Title for context menu to shorten URL"
    },
    "popupLoginButtonTitle": {
      "message": "Anmeldung",
      "description": "Title for login button in login popup"
    },
    "shortenNotificationTitle": {
      "message": " Kurzer Link in die Zwischenablage kopiert",
      "description": "Title for notification after shortening link"
    },
    "shortenNotificationDescription": {
      "message": "Sie können es jetzt verwenden, wie Sie es für richtig halten! :)",
      "description": "Description for notification after shortening link"
    },
    "poweredByFooterText":{
      "message": "Möglich dank",
      "description": "Text displayed before bit.ly in footer"
    },
    "userPreTitle":{
      "message": "Benutzer:",
      "description": "displayed on popup, username follows"
    },
    "logoutButtonTitle":{
      "message": "Ausloggen",
      "description": "displayed on logout button in popup"
    },
    "recentlyShortenedTitle":{
      "message": "Spätestens gekürzt",
      "description": "displayed above recent links in popup"
    },
    "recentlyShortenedEmpty":{
      "message": "Keine neuen Links",
      "description": "displayed ion recent links area when no links are found"
    },
    "disableAutoShortenContextItemTitle":{
      "message": "Deaktivieren Sie URL automatisch abkürzen",
      "description": ""
    },
    "shortenImageUrlContextItemTitle":{
      "message": "URL des Bildes kürzen",
      "description": "displayed in context menu when right clicked on image"
    },
    "settingsTitle":{
      "message": "Einstellungen",
      "description": "displayed ion recent links area when no links are found"
    },
    "settingsShowNotificationTitle":{
      "message": "Zeige Benachrichtigungen",
      "description": "displayed ion recent links area when no links are found"
    },
    "settingsShowNotificationDesc":{
      "message": "Steuert die Anzeige von Benachrichtigungen nach einem kurzen Link",
      "description": "displayed ion recent links area when no links are found"
    },
    "settingsShowCurrentUrlShortenTitle":{
      "message": "Verkürzen Sie die aktuelle URL-Option im Kontextmenü",
      "description": "displayed ion recent links area when no links are found"
    },
    "settingsShowCurrentUrlShortenDesc":{
      "message": "Steuert die Anzeige der Rechtsklick-Option zum Verkürzen der aktuellen URL",
      "description": "displayed ion recent links area when no links are found"
    },
    "settingsAutoUrlShortenTitle":{
      "message": "Automatische Kürzung der aktuellen URL",
      "description": "displayed ion recent links area when no links are found"
    },
    "settingsAutoUrlShortenDesc":{
      "message": "Ein kurzer Link wird für die aktuelle URL eines aktiven Tabs erstellt, indem Sie auf das Symbol der Erweiterung klicken HINWEIS: Sie müssen mit der rechten Maustaste auf das Erweiterungssymbol klicken, um diese Option zu deaktivieren",
      "description": "displayed ion recent links area when no links are found"
    }
  }